%YAML 1.1
%TAG !u! tag:unity3d.com,2011:
--- !u!114 &11400000
MonoBehaviour:
  m_ObjectHideFlags: 0
  m_PrefabParentObject: {fileID: 0}
  m_PrefabInternal: {fileID: 0}
  m_GameObject: {fileID: 0}
  m_Enabled: 1
  m_EditorHideFlags: 0
  m_Script: {fileID: -1223223985, guid: aa81bbec85a3f423193272a7c6154986, type: 3}
  m_Name: 01track
  m_EditorClassIdentifier: 
  mEventID: 01track
  mEventList:
  - mStartSample: 78400
    mEndSample: 78400
  - mStartSample: 156800
    mEndSample: 156800
  - mStartSample: 196000
    mEndSample: 196000
  - mStartSample: 235200
    mEndSample: 235200
  - mStartSample: 274400
    mEndSample: 274400
  - mStartSample: 313600
    mEndSample: 313600
  - mStartSample: 352800
    mEndSample: 352800
  - mStartSample: 392000
    mEndSample: 392000
  - mStartSample: 431200
    mEndSample: 431200
  - mStartSample: 470400
    mEndSample: 470400
  - mStartSample: 509600
    mEndSample: 509600
  - mStartSample: 548800
    mEndSample: 548800
  - mStartSample: 588000
    mEndSample: 588000
  - mStartSample: 627200
    mEndSample: 627200
  - mStartSample: 666400
    mEndSample: 666400
  - mStartSample: 705600
    mEndSample: 705600
  - mStartSample: 744800
    mEndSample: 744800
  - mStartSample: 784000
    mEndSample: 784000
  - mStartSample: 823200
    mEndSample: 823200
  - mStartSample: 862400
    mEndSample: 862400
  - mStartSample: 901600
    mEndSample: 901600
  - mStartSample: 940800
    mEndSample: 940800
  - mStartSample: 980000
    mEndSample: 980000
  - mStartSample: 1019200
    mEndSample: 1019200
  - mStartSample: 1058400
    mEndSample: 1058400
  - mStartSample: 1097600
    mEndSample: 1097600
  - mStartSample: 1136800
    mEndSample: 1136800
  - mStartSample: 1176000
    mEndSample: 1176000
  - mStartSample: 1234800
    mEndSample: 1234800
  - mStartSample: 1244600
    mEndSample: 1244600
  - mStartSample: 1254400
    mEndSample: 1254400
  - mStartSample: 1313200
    mEndSample: 1313200
  - mStartSample: 1332800
    mEndSample: 1332800
  - mStartSample: 1362200
    mEndSample: 1362200
  - mStartSample: 1391600
    mEndSample: 1391600
  - mStartSample: 1401400
    mEndSample: 1401400
  - mStartSample: 1470000
    mEndSample: 1470000
  - mStartSample: 1489600
    mEndSample: 1489600
  - mStartSample: 1519000
    mEndSample: 1519000
  - mStartSample: 1548400
    mEndSample: 1548400
  - mStartSample: 1558200
    mEndSample: 1558200
  - mStartSample: 1626800
    mEndSample: 1626800
  - mStartSample: 1646400
    mEndSample: 1646400
  - mStartSample: 1675800
    mEndSample: 1675800
  - mStartSample: 1705200
    mEndSample: 1705200
  - mStartSample: 1715000
    mEndSample: 1715000
  - mStartSample: 1773800
    mEndSample: 1773800
  - mStartSample: 1783600
    mEndSample: 1783600
  - mStartSample: 1793400
    mEndSample: 1793400
  - mStartSample: 1803200
    mEndSample: 1803200
  - mStartSample: 1822800
    mEndSample: 1822800
  - mStartSample: 1832600
    mEndSample: 1832600
  - mStartSample: 1862000
    mEndSample: 1862000
  - mStartSample: 1871800
    mEndSample: 1871800
  - mStartSample: 1940400
    mEndSample: 1940400
  - mStartSample: 1950200
    mEndSample: 1950200
  - mStartSample: 1960000
    mEndSample: 1960000
  - mStartSample: 1989400
    mEndSample: 1989400
  - mStartSample: 2018800
    mEndSample: 2018800
  - mStartSample: 2028600
    mEndSample: 2028600
  - mStartSample: 2097200
    mEndSample: 2097200
  - mStartSample: 2136400
    mEndSample: 2136400
  - mStartSample: 2146200
    mEndSample: 2146200
  - mStartSample: 2165800
    mEndSample: 2165800
  - mStartSample: 2175600
    mEndSample: 2175600
  - mStartSample: 2185400
    mEndSample: 2185400
  - mStartSample: 2254000
    mEndSample: 2254000
  - mStartSample: 2263800
    mEndSample: 2263800
  - mStartSample: 2273600
    mEndSample: 2273600
  - mStartSample: 2303000
    mEndSample: 2303000
  - mStartSample: 2332400
    mEndSample: 2332400
  - mStartSample: 2342200
    mEndSample: 2342200
  - mStartSample: 2401000
    mEndSample: 2401000
  - mStartSample: 2410800
    mEndSample: 2410800
  - mStartSample: 2420600
    mEndSample: 2420600
  - mStartSample: 2430400
    mEndSample: 2430400
  - mStartSample: 2450000
    mEndSample: 2450000
  - mStartSample: 2459800
    mEndSample: 2459800
  - mStartSample: 2489200
    mEndSample: 2489200
  - mStartSample: 2499000
    mEndSample: 2499000
  - mStartSample: 2508800
    mEndSample: 2508800
  - mStartSample: 2518600
    mEndSample: 2518600
  - mStartSample: 2528400
    mEndSample: 2528400
  - mStartSample: 2538200
    mEndSample: 2538200
  - mStartSample: 2548000
    mEndSample: 2548000
  - mStartSample: 2557800
    mEndSample: 2557800
  - mStartSample: 2567600
    mEndSample: 2567600
  - mStartSample: 2587200
    mEndSample: 2587200
  - mStartSample: 2597000
    mEndSample: 2597000
  - mStartSample: 2606800
    mEndSample: 2606800
  - mStartSample: 2616600
    mEndSample: 2616600
  - mStartSample: 2626400
    mEndSample: 2626400
  - mStartSample: 2636200
    mEndSample: 2636200
  - mStartSample: 2646000
    mEndSample: 2646000
  - mStartSample: 2665600
    mEndSample: 2665600
  - mStartSample: 2675400
    mEndSample: 2675400
  - mStartSample: 2685200
    mEndSample: 2685200
  - mStartSample: 2695000
    mEndSample: 2695000
  - mStartSample: 2704800
    mEndSample: 2704800
  - mStartSample: 2714600
    mEndSample: 2714600
  - mStartSample: 2724400
    mEndSample: 2724400
  - mStartSample: 2744000
    mEndSample: 2744000
  - mStartSample: 2753800
    mEndSample: 2753800
  - mStartSample: 2763600
    mEndSample: 2763600
  - mStartSample: 2773400
    mEndSample: 2773400
  - mStartSample: 2783200
    mEndSample: 2783200
  - mStartSample: 2793000
    mEndSample: 2793000
  - mStartSample: 2802800
    mEndSample: 2802800
  - mStartSample: 2822400
    mEndSample: 2822400
  - mStartSample: 2832200
    mEndSample: 2832200
  - mStartSample: 2842000
    mEndSample: 2842000
  - mStartSample: 2851800
    mEndSample: 2851800
  - mStartSample: 2861600
    mEndSample: 2861600
  - mStartSample: 2871400
    mEndSample: 2871400
  - mStartSample: 2881200
    mEndSample: 2881200
  - mStartSample: 2900800
    mEndSample: 2900800
  - mStartSample: 2910600
    mEndSample: 2910600
  - mStartSample: 2920400
    mEndSample: 2920400
  - mStartSample: 2930200
    mEndSample: 2930200
  - mStartSample: 2940000
    mEndSample: 2940000
  - mStartSample: 2949800
    mEndSample: 2949800
  - mStartSample: 2959600
    mEndSample: 2959600
  - mStartSample: 2979200
    mEndSample: 2979200
  - mStartSample: 2989000
    mEndSample: 2989000
  - mStartSample: 2998800
    mEndSample: 2998800
  - mStartSample: 3008600
    mEndSample: 3008600
  - mStartSample: 3018400
    mEndSample: 3018400
  - mStartSample: 3028200
    mEndSample: 3028200
  - mStartSample: 3038000
    mEndSample: 3038000
  - mStartSample: 3057600
    mEndSample: 3057600
  - mStartSample: 3067400
    mEndSample: 3067400
  - mStartSample: 3077200
    mEndSample: 3077200
  - mStartSample: 3087000
    mEndSample: 3087000
  - mStartSample: 3096800
    mEndSample: 3096800
  - mStartSample: 3106600
    mEndSample: 3106600
  - mStartSample: 3116400
    mEndSample: 3116400
  - mStartSample: 3136000
    mEndSample: 3136000
  - mStartSample: 3145800
    mEndSample: 3145800
  - mStartSample: 3155600
    mEndSample: 3155600
  - mStartSample: 3165400
    mEndSample: 3165400
  - mStartSample: 3175200
    mEndSample: 3175200
  - mStartSample: 3185000
    mEndSample: 3185000
  - mStartSample: 3194800
    mEndSample: 3194800
  - mStartSample: 3214400
    mEndSample: 3214400
  - mStartSample: 3224200
    mEndSample: 3224200
  - mStartSample: 3234000
    mEndSample: 3234000
  - mStartSample: 3243800
    mEndSample: 3243800
  - mStartSample: 3253600
    mEndSample: 3253600
  - mStartSample: 3263400
    mEndSample: 3263400
  - mStartSample: 3273200
    mEndSample: 3273200
  - mStartSample: 3292800
    mEndSample: 3292800
  - mStartSample: 3302600
    mEndSample: 3302600
  - mStartSample: 3312400
    mEndSample: 3312400
  - mStartSample: 3322200
    mEndSample: 3322200
  - mStartSample: 3332000
    mEndSample: 3332000
  - mStartSample: 3341800
    mEndSample: 3341800
  - mStartSample: 3351600
    mEndSample: 3351600
  - mStartSample: 3371200
    mEndSample: 3371200
  - mStartSample: 3381000
    mEndSample: 3381000
  - mStartSample: 3390800
    mEndSample: 3390800
  - mStartSample: 3400600
    mEndSample: 3400600
  - mStartSample: 3410400
    mEndSample: 3410400
  - mStartSample: 3420200
    mEndSample: 3420200
  - mStartSample: 3430000
    mEndSample: 3430000
  - mStartSample: 3449600
    mEndSample: 3449600
  - mStartSample: 3459400
    mEndSample: 3459400
  - mStartSample: 3469200
    mEndSample: 3469200
  - mStartSample: 3479000
    mEndSample: 3479000
  - mStartSample: 3488800
    mEndSample: 3488800
  - mStartSample: 3498600
    mEndSample: 3498600
  - mStartSample: 3508400
    mEndSample: 3508400
  - mStartSample: 3528000
    mEndSample: 3528000
  - mStartSample: 3537800
    mEndSample: 3537800
  - mStartSample: 3547600
    mEndSample: 3547600
  - mStartSample: 3557400
    mEndSample: 3557400
  - mStartSample: 3567200
    mEndSample: 3567200
  - mStartSample: 3577000
    mEndSample: 3577000
  - mStartSample: 3586800
    mEndSample: 3586800
  - mStartSample: 3606400
    mEndSample: 3606400
  - mStartSample: 3616200
    mEndSample: 3616200
  - mStartSample: 3626000
    mEndSample: 3626000
  - mStartSample: 3635800
    mEndSample: 3635800
  - mStartSample: 3645600
    mEndSample: 3645600
  - mStartSample: 3655400
    mEndSample: 3655400
  - mStartSample: 3665200
    mEndSample: 3665200
  - mStartSample: 3684800
    mEndSample: 3684800
  - mStartSample: 3694600
    mEndSample: 3694600
  - mStartSample: 3704400
    mEndSample: 3704400
  - mStartSample: 3714200
    mEndSample: 3714200
  - mStartSample: 3763200
    mEndSample: 3763200
  - mStartSample: 3802400
    mEndSample: 3802400
  - mStartSample: 3841600
    mEndSample: 3841600
  - mStartSample: 3920000
    mEndSample: 3920000
  - mStartSample: 3998400
    mEndSample: 3998400
  - mStartSample: 4076800
    mEndSample: 4076800
  - mStartSample: 4116000
    mEndSample: 4116000
  - mStartSample: 4155200
    mEndSample: 4155200
  - mStartSample: 4233600
    mEndSample: 4233600
  - mStartSample: 4272800
    mEndSample: 4272800
  - mStartSample: 4312000
    mEndSample: 4312000
  - mStartSample: 4390400
    mEndSample: 4390400
  _SerializedPayloadTypes:
  - SonicBloom.Koreo.TextPayload
  _AssetPayloads: []
  _AssetPayloadIdxs: 
  _ColorPayloads: []
  _ColorPayloadIdxs: 
  _CurvePayloads: []
  _CurvePayloadIdxs: 
  _FloatPayloads: []
  _FloatPayloadIdxs: 
  _GradientPayloads: []
  _GradientPayloadIdxs: 
  _IntPayloads: []
  _IntPayloadIdxs: 
  _SpectrumPayloads: []
  _SpectrumPayloadIdxs: 
  _TextPayloads:
  - mTextVal: 1
  - mTextVal: 1
  - mTextVal: 1
  - mTextVal: 1
  - mTextVal: 1
  - mTextVal: 1
  - mTextVal: 1
  - mTextVal: 1
  - mTextVal: 1
  - mTextVal: 1
  - mTextVal: 1
  - mTextVal: 1
  - mTextVal: 1
  - mTextVal: 1
  - mTextVal: 1
  - mTextVal: 1
  - mTextVal: 1
  - mTextVal: 1
  - mTextVal: 1
  - mTextVal: 1
  - mTextVal: 1
  - mTextVal: 1
  - mTextVal: 1
  - mTextVal: 1
  - mTextVal: 1
  - mTextVal: 1
  - mTextVal: 1
  - mTextVal: 1
  - mTextVal: 1
  - mTextVal: 1
  - mTextVal: 1
  - mTextVal: 1
  - mTextVal: 1
  - mTextVal: 1
  - mTextVal: 1
  - mTextVal: 1
  - mTextVal: 1
  - mTextVal: 1
  - mTextVal: 1
  - mTextVal: 1
  - mTextVal: 1
  - mTextVal: 1
  - mTextVal: 1
  - mTextVal: 1
  - mTextVal: 1
  - mTextVal: 1
  - mTextVal: 1
  - mTextVal: 1
  - mTextVal: 1
  - mTextVal: 1
  - mTextVal: 1
  - mTextVal: 1
  - mTextVal: 1
  - mTextVal: 1
  - mTextVal: 1
  - mTextVal: 1
  - mTextVal: 1
  - mTextVal: 1
  - mTextVal: 1
  - mTextVal: 1
  - mTextVal: 1
  - mTextVal: 1
  - mTextVal: 1
  - mTextVal: 1
  - mTextVal: 1
  - mTextVal: 1
  - mTextVal: 1
  - mTextVal: 1
  - mTextVal: 1
  - mTextVal: 1
  - mTextVal: 1
  - mTextVal: 1
  - mTextVal: 1
  - mTextVal: 1
  - mTextVal: 2
  - mTextVal: 1
  - mTextVal: 1
  - mTextVal: 1
  - mTextVal: 1
  - mTextVal: 1
  - mTextVal: 1
  - mTextVal: 1
  - mTextVal: 1
  - mTextVal: 1
  _TextPayloadIdxs: 0000000001000000030000000500000007000000090000000b0000000c0000000d0000000e0000000f000000100000001100000012000000130000001400000015000000160000001700000018000000190000001a0000001b0000001d0000001e0000001f000000200000002100000022000000230000002400000025000000260000002700000028000000290000002a0000002b0000002c0000002d0000002e0000002f000000300000003100000032000000330000003400000035000000360000003700000038000000390000003a0000003b0000003c0000003d0000003e0000003f000000400000004100000042000000430000004400000045000000460000004700000048000000490000004a0000004b0000004c0000004d0000004e0000004f000000bd000000be000000bf000000c0000000c1000000c2000000c4000000c5000000c7000000c8000000
