%YAML 1.1
%TAG !u! tag:unity3d.com,2011:
--- !u!114 &11400000
MonoBehaviour:
  m_ObjectHideFlags: 0
  m_CorrespondingSourceObject: {fileID: 0}
  m_PrefabInternal: {fileID: 0}
  m_GameObject: {fileID: 0}
  m_Enabled: 1
  m_EditorHideFlags: 0
  m_Script: {fileID: -1223223985, guid: aa81bbec85a3f423193272a7c6154986, type: 3}
  m_Name: 02track
  m_EditorClassIdentifier: 
  mEventID: 02track
  mEventList:
  - mStartSample: 52920
    mEndSample: 52920
  - mStartSample: 105840
    mEndSample: 105840
  - mStartSample: 211680
    mEndSample: 211680
  - mStartSample: 264600
    mEndSample: 264600
  - mStartSample: 317520
    mEndSample: 317520
  - mStartSample: 423360
    mEndSample: 423360
  - mStartSample: 476280
    mEndSample: 476280
  - mStartSample: 529200
    mEndSample: 529200
  - mStartSample: 635040
    mEndSample: 635040
  - mStartSample: 687960
    mEndSample: 687960
  - mStartSample: 740880
    mEndSample: 740880
  - mStartSample: 846720
    mEndSample: 846720
  - mStartSample: 899640
    mEndSample: 899640
  - mStartSample: 952560
    mEndSample: 952560
  - mStartSample: 1058400
    mEndSample: 1058400
  - mStartSample: 1111320
    mEndSample: 1111320
  - mStartSample: 1164240
    mEndSample: 1164240
  - mStartSample: 1270080
    mEndSample: 1270080
  - mStartSample: 1323000
    mEndSample: 1323000
  - mStartSample: 1375920
    mEndSample: 1375920
  - mStartSample: 1481760
    mEndSample: 1481760
  - mStartSample: 1534680
    mEndSample: 1534680
  - mStartSample: 1587600
    mEndSample: 1587600
  - mStartSample: 1693440
    mEndSample: 1693440
  - mStartSample: 1746360
    mEndSample: 1746360
  - mStartSample: 1799280
    mEndSample: 1799280
  - mStartSample: 1905120
    mEndSample: 1905120
  - mStartSample: 1958040
    mEndSample: 1958040
  - mStartSample: 2010960
    mEndSample: 2010960
  - mStartSample: 2116800
    mEndSample: 2116800
  - mStartSample: 2169720
    mEndSample: 2169720
  - mStartSample: 2222640
    mEndSample: 2222640
  - mStartSample: 2328480
    mEndSample: 2328480
  - mStartSample: 2381400
    mEndSample: 2381400
  - mStartSample: 2434320
    mEndSample: 2434320
  - mStartSample: 2540160
    mEndSample: 2540160
  - mStartSample: 2548980
    mEndSample: 2548980
  - mStartSample: 2557800
    mEndSample: 2557800
  - mStartSample: 2579850
    mEndSample: 2579850
  - mStartSample: 2593080
    mEndSample: 2593080
  - mStartSample: 2646000
    mEndSample: 2646000
  - mStartSample: 2654820
    mEndSample: 2654820
  - mStartSample: 2663640
    mEndSample: 2663640
  - mStartSample: 2685690
    mEndSample: 2685690
  - mStartSample: 2698920
    mEndSample: 2698920
  - mStartSample: 2751840
    mEndSample: 2751840
  - mStartSample: 2760660
    mEndSample: 2760660
  - mStartSample: 2769480
    mEndSample: 2769480
  - mStartSample: 2791530
    mEndSample: 2791530
  - mStartSample: 2804760
    mEndSample: 2804760
  - mStartSample: 2844450
    mEndSample: 2844450
  - mStartSample: 2963520
    mEndSample: 2963520
  - mStartSample: 2972340
    mEndSample: 2972340
  - mStartSample: 2981160
    mEndSample: 2981160
  - mStartSample: 3003210
    mEndSample: 3003210
  - mStartSample: 3016440
    mEndSample: 3016440
  - mStartSample: 3069360
    mEndSample: 3069360
  - mStartSample: 3078180
    mEndSample: 3078180
  - mStartSample: 3087000
    mEndSample: 3087000
  - mStartSample: 3109050
    mEndSample: 3109050
  - mStartSample: 3122280
    mEndSample: 3122280
  - mStartSample: 3175200
    mEndSample: 3175200
  - mStartSample: 3184020
    mEndSample: 3184020
  - mStartSample: 3192840
    mEndSample: 3192840
  - mStartSample: 3214890
    mEndSample: 3214890
  - mStartSample: 3228120
    mEndSample: 3228120
  - mStartSample: 3267810
    mEndSample: 3267810
  - mStartSample: 3386880
    mEndSample: 3386880
  - mStartSample: 3439800
    mEndSample: 3439800
  - mStartSample: 3492720
    mEndSample: 3492720
  - mStartSample: 3598560
    mEndSample: 3598560
  - mStartSample: 3651480
    mEndSample: 3651480
  - mStartSample: 3704400
    mEndSample: 3704400
  - mStartSample: 3810240
    mEndSample: 3810240
  - mStartSample: 3863160
    mEndSample: 3863160
  - mStartSample: 3916080
    mEndSample: 3916080
  - mStartSample: 4021920
    mEndSample: 4021920
  - mStartSample: 4074840
    mEndSample: 4074840
  - mStartSample: 4127760
    mEndSample: 4127760
  - mStartSample: 4233600
    mEndSample: 4233600
  - mStartSample: 4260060
    mEndSample: 4260060
  - mStartSample: 4286520
    mEndSample: 4286520
  - mStartSample: 4312980
    mEndSample: 4312980
  - mStartSample: 4339440
    mEndSample: 4339440
  - mStartSample: 4365900
    mEndSample: 4365900
  - mStartSample: 4392360
    mEndSample: 4392360
  - mStartSample: 4418820
    mEndSample: 4418820
  - mStartSample: 4445280
    mEndSample: 4445280
  - mStartSample: 4471740
    mEndSample: 4471740
  - mStartSample: 4498200
    mEndSample: 4498200
  - mStartSample: 4524660
    mEndSample: 4524660
  - mStartSample: 4551120
    mEndSample: 4551120
  - mStartSample: 4577580
    mEndSample: 4577580
  _SerializedPayloadTypes:
  - SonicBloom.Koreo.TextPayload
  _AssetPayloads: []
  _AssetPayloadIdxs: 
  _ColorPayloads: []
  _ColorPayloadIdxs: 
  _CurvePayloads: []
  _CurvePayloadIdxs: 
  _FloatPayloads: []
  _FloatPayloadIdxs: 
  _GradientPayloads: []
  _GradientPayloadIdxs: 
  _IntPayloads: []
  _IntPayloadIdxs: 
  _SpectrumPayloads: []
  _SpectrumPayloadIdxs: 
  _TextPayloads:
  - mTextVal: 1
  - mTextVal: 1
  - mTextVal: 1
  - mTextVal: 1
  - mTextVal: 1
  - mTextVal: 1
  - mTextVal: 1
  - mTextVal: 1
  - mTextVal: 1
  - mTextVal: 1
  - mTextVal: 1
  - mTextVal: 1
  - mTextVal: 1
  - mTextVal: 1
  - mTextVal: 1
  - mTextVal: 1
  - mTextVal: 1
  - mTextVal: 1
  - mTextVal: 1
  - mTextVal: 1
  - mTextVal: 1
  - mTextVal: 1
  - mTextVal: 1
  - mTextVal: 1
  - mTextVal: 1
  - mTextVal: 1
  - mTextVal: 1
  - mTextVal: 1
  - mTextVal: 1
  - mTextVal: 1
  - mTextVal: 2
  - mTextVal: 2
  - mTextVal: 2
  - mTextVal: 2
  - mTextVal: 2
  - mTextVal: 2
  - mTextVal: 2
  - mTextVal: 2
  - mTextVal: 2
  - mTextVal: 2
  - mTextVal: 2
  - mTextVal: 2
  - mTextVal: 2
  - mTextVal: 2
  - mTextVal: 2
  - mTextVal: 2
  - mTextVal: 2
  - mTextVal: 2
  - mTextVal: 2
  - mTextVal: 2
  - mTextVal: 2
  - mTextVal: 2
  - mTextVal: 2
  - mTextVal: 2
  - mTextVal: 2
  - mTextVal: 2
  - mTextVal: 2
  - mTextVal: 2
  - mTextVal: 2
  - mTextVal: 2
  - mTextVal: 2
  - mTextVal: 2
  - mTextVal: 2
  - mTextVal: 2
  - mTextVal: 2
  - mTextVal: 2
  - mTextVal: 2
  - mTextVal: 2
  - mTextVal: 2
  - mTextVal: 2
  _TextPayloadIdxs: 02000000040000000500000007000000080000000a0000000b0000000c0000000d0000000e0000000f000000100000001100000012000000130000001400000015000000160000001700000018000000190000001a0000001b0000001c0000001d0000001e0000001f000000200000002100000022000000230000002600000027000000280000002b0000002c0000002d0000003000000031000000330000003600000037000000380000003b0000003c0000003d0000004000000041000000430000004400000045000000460000004700000048000000490000004a0000004b0000004c0000004d0000004e0000004f000000510000005300000054000000550000005600000057000000590000005a0000005b000000
