%YAML 1.1
%TAG !u! tag:unity3d.com,2011:
--- !u!114 &11400000
MonoBehaviour:
  m_ObjectHideFlags: 0
  m_CorrespondingSourceObject: {fileID: 0}
  m_PrefabInternal: {fileID: 0}
  m_GameObject: {fileID: 0}
  m_Enabled: 1
  m_EditorHideFlags: 0
  m_Script: {fileID: -1223223985, guid: aa81bbec85a3f423193272a7c6154986, type: 3}
  m_Name: 04track
  m_EditorClassIdentifier: 
  mEventID: 04track
  mEventList:
  - mStartSample: 76695
    mEndSample: 76695
  - mStartSample: 95869
    mEndSample: 95869
  - mStartSample: 115043
    mEndSample: 115043
  - mStartSample: 129423
    mEndSample: 129423
  - mStartSample: 138798
    mEndSample: 138798
  - mStartSample: 148597
    mEndSample: 148597
  - mStartSample: 172565
    mEndSample: 172565
  - mStartSample: 191739
    mEndSample: 191739
  - mStartSample: 206119
    mEndSample: 206119
  - mStartSample: 214506
    mEndSample: 214506
  - mStartSample: 225293
    mEndSample: 225293
  - mStartSample: 249260
    mEndSample: 249260
  - mStartSample: 268434
    mEndSample: 268434
  - mStartSample: 287608
    mEndSample: 287608
  - mStartSample: 306782
    mEndSample: 306782
  - mStartSample: 325956
    mEndSample: 325956
  - mStartSample: 345130
    mEndSample: 345130
  - mStartSample: 359510
    mEndSample: 359510
  - mStartSample: 368025
    mEndSample: 368025
  - mStartSample: 378684
    mEndSample: 378684
  - mStartSample: 402652
    mEndSample: 402652
  - mStartSample: 421826
    mEndSample: 421826
  - mStartSample: 436206
    mEndSample: 436206
  - mStartSample: 444434
    mEndSample: 444434
  - mStartSample: 455380
    mEndSample: 455380
  - mStartSample: 479347
    mEndSample: 479347
  - mStartSample: 498521
    mEndSample: 498521
  - mStartSample: 512901
    mEndSample: 512901
  - mStartSample: 517695
    mEndSample: 517695
  - mStartSample: 532075
    mEndSample: 532075
  - mStartSample: 556043
    mEndSample: 556043
  - mStartSample: 575217
    mEndSample: 575217
  - mStartSample: 613565
    mEndSample: 613565
  - mStartSample: 632739
    mEndSample: 632739
  - mStartSample: 651913
    mEndSample: 651913
  - mStartSample: 666293
    mEndSample: 666293
  - mStartSample: 671087
    mEndSample: 671087
  - mStartSample: 685467
    mEndSample: 685467
  - mStartSample: 709434
    mEndSample: 709434
  - mStartSample: 728608
    mEndSample: 728608
  - mStartSample: 742988
    mEndSample: 742988
  - mStartSample: 747782
    mEndSample: 747782
  - mStartSample: 762162
    mEndSample: 762162
  - mStartSample: 786130
    mEndSample: 786130
  - mStartSample: 805304
    mEndSample: 805304
  - mStartSample: 819684
    mEndSample: 819684
  - mStartSample: 824478
    mEndSample: 824478
  - mStartSample: 838858
    mEndSample: 838858
  - mStartSample: 862826
    mEndSample: 862826
  - mStartSample: 882000
    mEndSample: 882000
  - mStartSample: 901173
    mEndSample: 901173
  - mStartSample: 920347
    mEndSample: 920347
  - mStartSample: 939521
    mEndSample: 939521
  - mStartSample: 958695
    mEndSample: 958695
  - mStartSample: 973075
    mEndSample: 973075
  - mStartSample: 977869
    mEndSample: 977869
  - mStartSample: 992249
    mEndSample: 992249
  - mStartSample: 1016216
    mEndSample: 1016216
  - mStartSample: 1035390
    mEndSample: 1035390
  - mStartSample: 1049770
    mEndSample: 1049770
  - mStartSample: 1054564
    mEndSample: 1054564
  - mStartSample: 1068944
    mEndSample: 1068944
  - mStartSample: 1092912
    mEndSample: 1092912
  - mStartSample: 1112086
    mEndSample: 1112086
  - mStartSample: 1126466
    mEndSample: 1126466
  - mStartSample: 1131260
    mEndSample: 1131260
  - mStartSample: 1145640
    mEndSample: 1145640
  - mStartSample: 1169608
    mEndSample: 1169608
  - mStartSample: 1188782
    mEndSample: 1188782
  - mStartSample: 1207955
    mEndSample: 1207955
  - mStartSample: 1227130
    mEndSample: 1227130
  - mStartSample: 1279858
    mEndSample: 1279858
  - mStartSample: 1284652
    mEndSample: 1284652
  - mStartSample: 1299032
    mEndSample: 1299032
  - mStartSample: 1380521
    mEndSample: 1380521
  - mStartSample: 1399695
    mEndSample: 1399695
  - mStartSample: 1418869
    mEndSample: 1418869
  - mStartSample: 1438043
    mEndSample: 1438043
  - mStartSample: 1457217
    mEndSample: 1457217
  - mStartSample: 1533913
    mEndSample: 1533913
  - mStartSample: 1586641
    mEndSample: 1586641
  - mStartSample: 1591434
    mEndSample: 1591434
  - mStartSample: 1610608
    mEndSample: 1610608
  - mStartSample: 1687304
    mEndSample: 1687304
  - mStartSample: 1706478
    mEndSample: 1706478
  - mStartSample: 1725652
    mEndSample: 1725652
  - mStartSample: 1740032
    mEndSample: 1740032
  - mStartSample: 1744826
    mEndSample: 1744826
  - mStartSample: 1759206
    mEndSample: 1759206
  - mStartSample: 1783173
    mEndSample: 1783173
  - mStartSample: 1802347
    mEndSample: 1802347
  - mStartSample: 1816727
    mEndSample: 1816727
  - mStartSample: 1821521
    mEndSample: 1821521
  - mStartSample: 1835901
    mEndSample: 1835901
  - mStartSample: 1859869
    mEndSample: 1859869
  - mStartSample: 1879043
    mEndSample: 1879043
  - mStartSample: 1893423
    mEndSample: 1893423
  - mStartSample: 1898217
    mEndSample: 1898217
  - mStartSample: 1912597
    mEndSample: 1912597
  - mStartSample: 1936565
    mEndSample: 1936565
  - mStartSample: 1955739
    mEndSample: 1955739
  - mStartSample: 1974912
    mEndSample: 1974912
  - mStartSample: 1994086
    mEndSample: 1994086
  - mStartSample: 2013260
    mEndSample: 2013260
  - mStartSample: 2032434
    mEndSample: 2032434
  - mStartSample: 2046814
    mEndSample: 2046814
  - mStartSample: 2051608
    mEndSample: 2051608
  - mStartSample: 2065988
    mEndSample: 2065988
  - mStartSample: 2089955
    mEndSample: 2089955
  - mStartSample: 2109129
    mEndSample: 2109129
  - mStartSample: 2123509
    mEndSample: 2123509
  - mStartSample: 2128303
    mEndSample: 2128303
  - mStartSample: 2142683
    mEndSample: 2142683
  - mStartSample: 2166651
    mEndSample: 2166651
  - mStartSample: 2185825
    mEndSample: 2185825
  - mStartSample: 2200205
    mEndSample: 2200205
  - mStartSample: 2204999
    mEndSample: 2204999
  - mStartSample: 2219379
    mEndSample: 2219379
  - mStartSample: 2243347
    mEndSample: 2243347
  - mStartSample: 2262521
    mEndSample: 2262521
  - mStartSample: 2300869
    mEndSample: 2300869
  - mStartSample: 2320043
    mEndSample: 2320043
  - mStartSample: 2339217
    mEndSample: 2339217
  - mStartSample: 2353597
    mEndSample: 2353597
  - mStartSample: 2358391
    mEndSample: 2358391
  - mStartSample: 2372771
    mEndSample: 2372771
  - mStartSample: 2396738
    mEndSample: 2396738
  - mStartSample: 2415912
    mEndSample: 2415912
  - mStartSample: 2430292
    mEndSample: 2430292
  - mStartSample: 2435086
    mEndSample: 2435086
  - mStartSample: 2449466
    mEndSample: 2449466
  - mStartSample: 2473434
    mEndSample: 2473434
  - mStartSample: 2492608
    mEndSample: 2492608
  - mStartSample: 2506988
    mEndSample: 2506988
  - mStartSample: 2511782
    mEndSample: 2511782
  - mStartSample: 2526162
    mEndSample: 2526162
  - mStartSample: 2550130
    mEndSample: 2550130
  - mStartSample: 2569304
    mEndSample: 2569304
  - mStartSample: 2588477
    mEndSample: 2588477
  - mStartSample: 2607652
    mEndSample: 2607652
  - mStartSample: 2626826
    mEndSample: 2626826
  - mStartSample: 2646000
    mEndSample: 2646000
  - mStartSample: 2660380
    mEndSample: 2660380
  - mStartSample: 2665174
    mEndSample: 2665174
  - mStartSample: 2679554
    mEndSample: 2679554
  - mStartSample: 2703521
    mEndSample: 2703521
  - mStartSample: 2722695
    mEndSample: 2722695
  - mStartSample: 2737075
    mEndSample: 2737075
  - mStartSample: 2741869
    mEndSample: 2741869
  - mStartSample: 2756249
    mEndSample: 2756249
  - mStartSample: 2780217
    mEndSample: 2780217
  - mStartSample: 2799391
    mEndSample: 2799391
  - mStartSample: 2813771
    mEndSample: 2813771
  - mStartSample: 2818565
    mEndSample: 2818565
  - mStartSample: 2832945
    mEndSample: 2832945
  - mStartSample: 2856913
    mEndSample: 2856913
  - mStartSample: 2876086
    mEndSample: 2876086
  - mStartSample: 2876087
    mEndSample: 2876087
  - mStartSample: 2928815
    mEndSample: 2928815
  - mStartSample: 2933608
    mEndSample: 2933608
  - mStartSample: 2947989
    mEndSample: 2947989
  - mStartSample: 2952782
    mEndSample: 2952782
  - mStartSample: 2967163
    mEndSample: 2967163
  - mStartSample: 2971956
    mEndSample: 2971956
  - mStartSample: 2986336
    mEndSample: 2986336
  - mStartSample: 3005510
    mEndSample: 3005510
  - mStartSample: 3010303
    mEndSample: 3010303
  - mStartSample: 3024684
    mEndSample: 3024684
  - mStartSample: 3029477
    mEndSample: 3029477
  - mStartSample: 3043858
    mEndSample: 3043858
  - mStartSample: 3048651
    mEndSample: 3048651
  - mStartSample: 3063031
    mEndSample: 3063031
  - mStartSample: 3082206
    mEndSample: 3082206
  - mStartSample: 3086999
    mEndSample: 3086999
  - mStartSample: 3101380
    mEndSample: 3101380
  - mStartSample: 3106173
    mEndSample: 3106173
  - mStartSample: 3120554
    mEndSample: 3120554
  - mStartSample: 3125347
    mEndSample: 3125347
  - mStartSample: 3139727
    mEndSample: 3139727
  - mStartSample: 3154108
    mEndSample: 3154108
  - mStartSample: 3163695
    mEndSample: 3163695
  - mStartSample: 3173282
    mEndSample: 3173282
  - mStartSample: 3182869
    mEndSample: 3182869
  - mStartSample: 3202043
    mEndSample: 3202043
  - mStartSample: 3235597
    mEndSample: 3235597
  - mStartSample: 3240390
    mEndSample: 3240390
  - mStartSample: 3254771
    mEndSample: 3254771
  - mStartSample: 3259564
    mEndSample: 3259564
  - mStartSample: 3273945
    mEndSample: 3273945
  - mStartSample: 3278738
    mEndSample: 3278738
  - mStartSample: 3293118
    mEndSample: 3293118
  - mStartSample: 3312293
    mEndSample: 3312293
  - mStartSample: 3317086
    mEndSample: 3317086
  - mStartSample: 3331467
    mEndSample: 3331467
  - mStartSample: 3336260
    mEndSample: 3336260
  - mStartSample: 3350641
    mEndSample: 3350641
  - mStartSample: 3355434
    mEndSample: 3355434
  - mStartSample: 3369814
    mEndSample: 3369814
  - mStartSample: 3388989
    mEndSample: 3388989
  - mStartSample: 3393782
    mEndSample: 3393782
  - mStartSample: 3408163
    mEndSample: 3408163
  - mStartSample: 3412956
    mEndSample: 3412956
  - mStartSample: 3427337
    mEndSample: 3427337
  - mStartSample: 3432130
    mEndSample: 3432130
  - mStartSample: 3446510
    mEndSample: 3446510
  - mStartSample: 3460891
    mEndSample: 3460891
  - mStartSample: 3470478
    mEndSample: 3470478
  - mStartSample: 3480065
    mEndSample: 3480065
  - mStartSample: 3542380
    mEndSample: 3542380
  - mStartSample: 3547173
    mEndSample: 3547173
  - mStartSample: 3561554
    mEndSample: 3561554
  - mStartSample: 3566347
    mEndSample: 3566347
  - mStartSample: 3580728
    mEndSample: 3580728
  - mStartSample: 3585521
    mEndSample: 3585521
  - mStartSample: 3599901
    mEndSample: 3599901
  - mStartSample: 3619075
    mEndSample: 3619075
  - mStartSample: 3623868
    mEndSample: 3623868
  - mStartSample: 3638249
    mEndSample: 3638249
  - mStartSample: 3643042
    mEndSample: 3643042
  - mStartSample: 3657423
    mEndSample: 3657423
  - mStartSample: 3662216
    mEndSample: 3662216
  - mStartSample: 3676596
    mEndSample: 3676596
  - mStartSample: 3695771
    mEndSample: 3695771
  - mStartSample: 3700564
    mEndSample: 3700564
  - mStartSample: 3714945
    mEndSample: 3714945
  - mStartSample: 3719738
    mEndSample: 3719738
  - mStartSample: 3734119
    mEndSample: 3734119
  - mStartSample: 3738912
    mEndSample: 3738912
  - mStartSample: 3753292
    mEndSample: 3753292
  - mStartSample: 3767673
    mEndSample: 3767673
  - mStartSample: 3777260
    mEndSample: 3777260
  - mStartSample: 3786847
    mEndSample: 3786847
  - mStartSample: 3796434
    mEndSample: 3796434
  - mStartSample: 3815608
    mEndSample: 3815608
  - mStartSample: 3849162
    mEndSample: 3849162
  - mStartSample: 3853955
    mEndSample: 3853955
  - mStartSample: 3868336
    mEndSample: 3868336
  - mStartSample: 3873129
    mEndSample: 3873129
  - mStartSample: 3887510
    mEndSample: 3887510
  - mStartSample: 3892303
    mEndSample: 3892303
  - mStartSample: 3906683
    mEndSample: 3906683
  - mStartSample: 3925858
    mEndSample: 3925858
  - mStartSample: 3930651
    mEndSample: 3930651
  - mStartSample: 3945032
    mEndSample: 3945032
  - mStartSample: 3949825
    mEndSample: 3949825
  - mStartSample: 3964206
    mEndSample: 3964206
  - mStartSample: 3968999
    mEndSample: 3968999
  - mStartSample: 3983379
    mEndSample: 3983379
  - mStartSample: 4002554
    mEndSample: 4002554
  - mStartSample: 4007347
    mEndSample: 4007347
  - mStartSample: 4021728
    mEndSample: 4021728
  - mStartSample: 4026521
    mEndSample: 4026521
  - mStartSample: 4040902
    mEndSample: 4040902
  - mStartSample: 4045695
    mEndSample: 4045695
  - mStartSample: 4060075
    mEndSample: 4060075
  - mStartSample: 4074456
    mEndSample: 4074456
  - mStartSample: 4084043
    mEndSample: 4084043
  - mStartSample: 4093630
    mEndSample: 4093630
  - mStartSample: 4151152
    mEndSample: 4151152
  - mStartSample: 4160739
    mEndSample: 4160739
  - mStartSample: 4170326
    mEndSample: 4170326
  - mStartSample: 4189500
    mEndSample: 4189500
  - mStartSample: 4199086
    mEndSample: 4199086
  - mStartSample: 4227847
    mEndSample: 4227847
  - mStartSample: 4237434
    mEndSample: 4237434
  - mStartSample: 4247021
    mEndSample: 4247021
  - mStartSample: 4266195
    mEndSample: 4266195
  - mStartSample: 4275782
    mEndSample: 4275782
  - mStartSample: 4294956
    mEndSample: 4294956
  - mStartSample: 4314130
    mEndSample: 4314130
  - mStartSample: 4333304
    mEndSample: 4333304
  - mStartSample: 4347684
    mEndSample: 4347684
  - mStartSample: 4352478
    mEndSample: 4352478
  - mStartSample: 4366858
    mEndSample: 4366858
  - mStartSample: 4386032
    mEndSample: 4386032
  - mStartSample: 4390826
    mEndSample: 4390826
  - mStartSample: 4405206
    mEndSample: 4405206
  - mStartSample: 4429173
    mEndSample: 4429173
  - mStartSample: 4448347
    mEndSample: 4448347
  _SerializedPayloadTypes: []
  _AssetPayloads: []
  _AssetPayloadIdxs: 
  _ColorPayloads: []
  _ColorPayloadIdxs: 
  _CurvePayloads: []
  _CurvePayloadIdxs: 
  _FloatPayloads: []
  _FloatPayloadIdxs: 
  _GradientPayloads: []
  _GradientPayloadIdxs: 
  _IntPayloads: []
  _IntPayloadIdxs: 
  _SpectrumPayloads: []
  _SpectrumPayloadIdxs: 
  _TextPayloads: []
  _TextPayloadIdxs: 
