%YAML 1.1
%TAG !u! tag:unity3d.com,2011:
--- !u!114 &11400000
MonoBehaviour:
  m_ObjectHideFlags: 0
  m_CorrespondingSourceObject: {fileID: 0}
  m_PrefabInternal: {fileID: 0}
  m_GameObject: {fileID: 0}
  m_Enabled: 1
  m_EditorHideFlags: 0
  m_Script: {fileID: -1223223985, guid: aa81bbec85a3f423193272a7c6154986, type: 3}
  m_Name: K_01track
  m_EditorClassIdentifier: 
  mEventID: 01track
  mEventList:
  - mStartSample: 41100
    mEndSample: 41100
  - mStartSample: 80300
    mEndSample: 80300
  - mStartSample: 119500
    mEndSample: 119500
  - mStartSample: 158700
    mEndSample: 158700
  - mStartSample: 197900
    mEndSample: 197900
  - mStartSample: 237100
    mEndSample: 237100
  - mStartSample: 276300
    mEndSample: 276300
  - mStartSample: 315500
    mEndSample: 315500
  - mStartSample: 354700
    mEndSample: 354700
  - mStartSample: 393900
    mEndSample: 393900
  - mStartSample: 433100
    mEndSample: 433100
  - mStartSample: 472300
    mEndSample: 472300
  - mStartSample: 511500
    mEndSample: 511500
  - mStartSample: 550700
    mEndSample: 550700
  - mStartSample: 589900
    mEndSample: 589900
  - mStartSample: 629100
    mEndSample: 629100
  - mStartSample: 668300
    mEndSample: 668300
  - mStartSample: 707500
    mEndSample: 707500
  - mStartSample: 746700
    mEndSample: 746700
  - mStartSample: 785900
    mEndSample: 785900
  - mStartSample: 825100
    mEndSample: 825100
  - mStartSample: 864300
    mEndSample: 864300
  - mStartSample: 903500
    mEndSample: 903500
  - mStartSample: 942700
    mEndSample: 942700
  - mStartSample: 981900
    mEndSample: 981900
  - mStartSample: 1021100
    mEndSample: 1021100
  - mStartSample: 1060300
    mEndSample: 1060300
  - mStartSample: 1099500
    mEndSample: 1099500
  - mStartSample: 1138700
    mEndSample: 1138700
  - mStartSample: 1177900
    mEndSample: 1177900
  - mStartSample: 1217100
    mEndSample: 1217100
  - mStartSample: 1256300
    mEndSample: 1256300
  - mStartSample: 1295500
    mEndSample: 1295500
  - mStartSample: 1334700
    mEndSample: 1334700
  - mStartSample: 1373900
    mEndSample: 1373900
  - mStartSample: 1413100
    mEndSample: 1413100
  - mStartSample: 1452300
    mEndSample: 1452300
  - mStartSample: 1491500
    mEndSample: 1491500
  - mStartSample: 1530700
    mEndSample: 1530700
  - mStartSample: 1569900
    mEndSample: 1569900
  - mStartSample: 1609100
    mEndSample: 1609100
  - mStartSample: 1648300
    mEndSample: 1648300
  - mStartSample: 1687500
    mEndSample: 1687500
  - mStartSample: 1726700
    mEndSample: 1726700
  - mStartSample: 1765900
    mEndSample: 1765900
  - mStartSample: 1805100
    mEndSample: 1805100
  - mStartSample: 1844300
    mEndSample: 1844300
  - mStartSample: 1883500
    mEndSample: 1883500
  - mStartSample: 1922700
    mEndSample: 1922700
  - mStartSample: 1961900
    mEndSample: 1961900
  - mStartSample: 2001100
    mEndSample: 2001100
  - mStartSample: 2040300
    mEndSample: 2040300
  - mStartSample: 2079500
    mEndSample: 2079500
  - mStartSample: 2118700
    mEndSample: 2118700
  - mStartSample: 2157900
    mEndSample: 2157900
  - mStartSample: 2197100
    mEndSample: 2197100
  - mStartSample: 2236300
    mEndSample: 2236300
  - mStartSample: 2275500
    mEndSample: 2275500
  - mStartSample: 2314700
    mEndSample: 2314700
  - mStartSample: 2353900
    mEndSample: 2353900
  - mStartSample: 2393100
    mEndSample: 2393100
  - mStartSample: 2432300
    mEndSample: 2432300
  - mStartSample: 2471500
    mEndSample: 2471500
  - mStartSample: 2510700
    mEndSample: 2510700
  - mStartSample: 2530300
    mEndSample: 2530300
  - mStartSample: 2549900
    mEndSample: 2549900
  - mStartSample: 2569500
    mEndSample: 2569500
  - mStartSample: 2589100
    mEndSample: 2589100
  - mStartSample: 2608700
    mEndSample: 2608700
  - mStartSample: 2628300
    mEndSample: 2628300
  - mStartSample: 2647900
    mEndSample: 2647900
  - mStartSample: 2667500
    mEndSample: 2667500
  - mStartSample: 2687100
    mEndSample: 2687100
  - mStartSample: 2706700
    mEndSample: 2706700
  - mStartSample: 2726300
    mEndSample: 2726300
  - mStartSample: 2745900
    mEndSample: 2745900
  - mStartSample: 2765500
    mEndSample: 2765500
  - mStartSample: 2785100
    mEndSample: 2785100
  - mStartSample: 2804700
    mEndSample: 2804700
  - mStartSample: 2824300
    mEndSample: 2824300
  - mStartSample: 2843900
    mEndSample: 2843900
  - mStartSample: 2863500
    mEndSample: 2863500
  - mStartSample: 2883100
    mEndSample: 2883100
  - mStartSample: 2902700
    mEndSample: 2902700
  - mStartSample: 2922300
    mEndSample: 2922300
  - mStartSample: 2941900
    mEndSample: 2941900
  - mStartSample: 2961500
    mEndSample: 2961500
  - mStartSample: 2981100
    mEndSample: 2981100
  - mStartSample: 3000700
    mEndSample: 3000700
  - mStartSample: 3020300
    mEndSample: 3020300
  - mStartSample: 3039900
    mEndSample: 3039900
  - mStartSample: 3059500
    mEndSample: 3059500
  - mStartSample: 3079100
    mEndSample: 3079100
  - mStartSample: 3098700
    mEndSample: 3098700
  - mStartSample: 3118300
    mEndSample: 3118300
  - mStartSample: 3137900
    mEndSample: 3137900
  - mStartSample: 3157500
    mEndSample: 3157500
  - mStartSample: 3177100
    mEndSample: 3177100
  - mStartSample: 3196700
    mEndSample: 3196700
  - mStartSample: 3216300
    mEndSample: 3216300
  - mStartSample: 3235900
    mEndSample: 3235900
  - mStartSample: 3255500
    mEndSample: 3255500
  - mStartSample: 3275100
    mEndSample: 3275100
  - mStartSample: 3294700
    mEndSample: 3294700
  - mStartSample: 3314300
    mEndSample: 3314300
  - mStartSample: 3333900
    mEndSample: 3333900
  - mStartSample: 3353500
    mEndSample: 3353500
  - mStartSample: 3373100
    mEndSample: 3373100
  - mStartSample: 3392700
    mEndSample: 3392700
  - mStartSample: 3412300
    mEndSample: 3412300
  - mStartSample: 3431900
    mEndSample: 3431900
  - mStartSample: 3451500
    mEndSample: 3451500
  - mStartSample: 3471100
    mEndSample: 3471100
  - mStartSample: 3490700
    mEndSample: 3490700
  - mStartSample: 3510300
    mEndSample: 3510300
  - mStartSample: 3529900
    mEndSample: 3529900
  - mStartSample: 3549500
    mEndSample: 3549500
  - mStartSample: 3569100
    mEndSample: 3569100
  - mStartSample: 3588700
    mEndSample: 3588700
  - mStartSample: 3608300
    mEndSample: 3608300
  - mStartSample: 3627900
    mEndSample: 3627900
  - mStartSample: 3647500
    mEndSample: 3647500
  - mStartSample: 3667100
    mEndSample: 3667100
  - mStartSample: 3686700
    mEndSample: 3686700
  - mStartSample: 3706300
    mEndSample: 3706300
  - mStartSample: 3725900
    mEndSample: 3725900
  - mStartSample: 3745500
    mEndSample: 3745500
  - mStartSample: 3765100
    mEndSample: 3765100
  - mStartSample: 3804300
    mEndSample: 3804300
  - mStartSample: 3843500
    mEndSample: 3843500
  - mStartSample: 3882700
    mEndSample: 3882700
  - mStartSample: 3921900
    mEndSample: 3921900
  - mStartSample: 3961100
    mEndSample: 3961100
  - mStartSample: 4000300
    mEndSample: 4000300
  - mStartSample: 4039500
    mEndSample: 4039500
  - mStartSample: 4078700
    mEndSample: 4078700
  - mStartSample: 4117900
    mEndSample: 4117900
  - mStartSample: 4157100
    mEndSample: 4157100
  - mStartSample: 4196300
    mEndSample: 4196300
  - mStartSample: 4235500
    mEndSample: 4235500
  - mStartSample: 4274700
    mEndSample: 4274700
  - mStartSample: 4313900
    mEndSample: 4313900
  _SerializedPayloadTypes: []
  _AssetPayloads: []
  _AssetPayloadIdxs: 
  _ColorPayloads: []
  _ColorPayloadIdxs: 
  _CurvePayloads: []
  _CurvePayloadIdxs: 
  _FloatPayloads: []
  _FloatPayloadIdxs: 
  _GradientPayloads: []
  _GradientPayloadIdxs: 
  _IntPayloads: []
  _IntPayloadIdxs: 
  _SpectrumPayloads: []
  _SpectrumPayloadIdxs: 
  _TextPayloads: []
  _TextPayloadIdxs: 
