%YAML 1.1
%TAG !u! tag:unity3d.com,2011:
--- !u!114 &11400000
MonoBehaviour:
  m_ObjectHideFlags: 0
  m_PrefabParentObject: {fileID: 0}
  m_PrefabInternal: {fileID: 0}
  m_GameObject: {fileID: 0}
  m_Enabled: 1
  m_EditorHideFlags: 0
  m_Script: {fileID: -1223223985, guid: aa81bbec85a3f423193272a7c6154986, type: 3}
  m_Name: K_03track
  m_EditorClassIdentifier: 
  mEventID: 03track
  mEventList:
  - mStartSample: 2000
    mEndSample: 2000
  - mStartSample: 20900
    mEndSample: 20900
  - mStartSample: 39800
    mEndSample: 39800
  - mStartSample: 58700
    mEndSample: 58700
  - mStartSample: 77600
    mEndSample: 77600
  - mStartSample: 96500
    mEndSample: 96500
  - mStartSample: 115400
    mEndSample: 115400
  - mStartSample: 134300
    mEndSample: 134300
  - mStartSample: 153200
    mEndSample: 153200
  - mStartSample: 172100
    mEndSample: 172100
  - mStartSample: 191000
    mEndSample: 191000
  - mStartSample: 209900
    mEndSample: 209900
  - mStartSample: 228800
    mEndSample: 228800
  - mStartSample: 304400
    mEndSample: 304400
  - mStartSample: 323300
    mEndSample: 323300
  - mStartSample: 342200
    mEndSample: 342200
  - mStartSample: 361100
    mEndSample: 361100
  - mStartSample: 380000
    mEndSample: 380000
  - mStartSample: 398900
    mEndSample: 398900
  - mStartSample: 417800
    mEndSample: 417800
  - mStartSample: 436700
    mEndSample: 436700
  - mStartSample: 455600
    mEndSample: 455600
  - mStartSample: 474500
    mEndSample: 474500
  - mStartSample: 493400
    mEndSample: 493400
  - mStartSample: 512300
    mEndSample: 512300
  - mStartSample: 531200
    mEndSample: 531200
  - mStartSample: 550100
    mEndSample: 550100
  - mStartSample: 569000
    mEndSample: 569000
  - mStartSample: 587900
    mEndSample: 587900
  - mStartSample: 606800
    mEndSample: 606800
  - mStartSample: 625700
    mEndSample: 625700
  - mStartSample: 644600
    mEndSample: 644600
  - mStartSample: 663500
    mEndSample: 663500
  - mStartSample: 682400
    mEndSample: 682400
  - mStartSample: 701300
    mEndSample: 701300
  - mStartSample: 720200
    mEndSample: 720200
  - mStartSample: 739100
    mEndSample: 739100
  - mStartSample: 758000
    mEndSample: 758000
  - mStartSample: 776900
    mEndSample: 776900
  - mStartSample: 795800
    mEndSample: 795800
  - mStartSample: 814700
    mEndSample: 814700
  - mStartSample: 833600
    mEndSample: 833600
  - mStartSample: 852500
    mEndSample: 852500
  - mStartSample: 865522
    mEndSample: 865522
  - mStartSample: 947000
    mEndSample: 947000
  - mStartSample: 965900
    mEndSample: 965900
  - mStartSample: 984800
    mEndSample: 984800
  - mStartSample: 1022600
    mEndSample: 1022600
  - mStartSample: 1041500
    mEndSample: 1041500
  - mStartSample: 1054100
    mEndSample: 1054100
  - mStartSample: 1154900
    mEndSample: 1154900
  - mStartSample: 1173800
    mEndSample: 1173800
  - mStartSample: 1192700
    mEndSample: 1192700
  - mStartSample: 1205300
    mEndSample: 1205300
  - mStartSample: 1325000
    mEndSample: 1325000
  - mStartSample: 1343900
    mEndSample: 1343900
  - mStartSample: 1356500
    mEndSample: 1356500
  - mStartSample: 1375400
    mEndSample: 1375400
  - mStartSample: 1532900
    mEndSample: 1532900
  - mStartSample: 1551800
    mEndSample: 1551800
  - mStartSample: 1570700
    mEndSample: 1570700
  - mStartSample: 1589600
    mEndSample: 1589600
  - mStartSample: 1608500
    mEndSample: 1608500
  - mStartSample: 1627400
    mEndSample: 1627400
  - mStartSample: 1646300
    mEndSample: 1646300
  - mStartSample: 1665200
    mEndSample: 1665200
  - mStartSample: 1684100
    mEndSample: 1684100
  - mStartSample: 1703000
    mEndSample: 1703000
  - mStartSample: 1721900
    mEndSample: 1721900
  - mStartSample: 1740800
    mEndSample: 1740800
  - mStartSample: 1759700
    mEndSample: 1759700
  - mStartSample: 1778600
    mEndSample: 1778600
  - mStartSample: 1797500
    mEndSample: 1797500
  - mStartSample: 1816400
    mEndSample: 1816400
  - mStartSample: 1835300
    mEndSample: 1835300
  - mStartSample: 1854200
    mEndSample: 1854200
  - mStartSample: 1873100
    mEndSample: 1873100
  - mStartSample: 1892000
    mEndSample: 1892000
  - mStartSample: 1910900
    mEndSample: 1910900
  - mStartSample: 1929800
    mEndSample: 1929800
  - mStartSample: 1948700
    mEndSample: 1948700
  - mStartSample: 1967600
    mEndSample: 1967600
  - mStartSample: 1986500
    mEndSample: 1986500
  - mStartSample: 2005400
    mEndSample: 2005400
  - mStartSample: 2024300
    mEndSample: 2024300
  - mStartSample: 2043200
    mEndSample: 2043200
  - mStartSample: 2062100
    mEndSample: 2062100
  - mStartSample: 2074825
    mEndSample: 2074825
  - mStartSample: 2118800
    mEndSample: 2118800
  - mStartSample: 2137700
    mEndSample: 2137700
  - mStartSample: 2156600
    mEndSample: 2156600
  - mStartSample: 2169200
    mEndSample: 2169200
  - mStartSample: 2188100
    mEndSample: 2188100
  - mStartSample: 2213300
    mEndSample: 2213300
  - mStartSample: 2232200
    mEndSample: 2232200
  - mStartSample: 2244800
    mEndSample: 2244800
  - mStartSample: 2263700
    mEndSample: 2263700
  - mStartSample: 2288900
    mEndSample: 2288900
  - mStartSample: 2307800
    mEndSample: 2307800
  - mStartSample: 2320400
    mEndSample: 2320400
  - mStartSample: 2339300
    mEndSample: 2339300
  - mStartSample: 2364500
    mEndSample: 2364500
  - mStartSample: 2402300
    mEndSample: 2402300
  - mStartSample: 2421200
    mEndSample: 2421200
  - mStartSample: 2440100
    mEndSample: 2440100
  - mStartSample: 2459000
    mEndSample: 2459000
  - mStartSample: 2471600
    mEndSample: 2471600
  - mStartSample: 2490500
    mEndSample: 2490500
  - mStartSample: 2515700
    mEndSample: 2515700
  - mStartSample: 2534600
    mEndSample: 2534600
  - mStartSample: 2547200
    mEndSample: 2547200
  - mStartSample: 2566100
    mEndSample: 2566100
  - mStartSample: 2591300
    mEndSample: 2591300
  - mStartSample: 2610200
    mEndSample: 2610200
  - mStartSample: 2622800
    mEndSample: 2622800
  - mStartSample: 2641700
    mEndSample: 2641700
  - mStartSample: 2723600
    mEndSample: 2723600
  - mStartSample: 2742500
    mEndSample: 2742500
  - mStartSample: 2761400
    mEndSample: 2761400
  - mStartSample: 2774000
    mEndSample: 2774000
  - mStartSample: 2792900
    mEndSample: 2792900
  - mStartSample: 2818100
    mEndSample: 2818100
  - mStartSample: 2837000
    mEndSample: 2837000
  - mStartSample: 2849600
    mEndSample: 2849600
  - mStartSample: 2868500
    mEndSample: 2868500
  - mStartSample: 2893700
    mEndSample: 2893700
  - mStartSample: 2912600
    mEndSample: 2912600
  - mStartSample: 2925200
    mEndSample: 2925200
  - mStartSample: 2944100
    mEndSample: 2944100
  - mStartSample: 3007100
    mEndSample: 3007100
  - mStartSample: 3026000
    mEndSample: 3026000
  - mStartSample: 3044900
    mEndSample: 3044900
  - mStartSample: 3063800
    mEndSample: 3063800
  - mStartSample: 3076400
    mEndSample: 3076400
  - mStartSample: 3095300
    mEndSample: 3095300
  - mStartSample: 3120500
    mEndSample: 3120500
  - mStartSample: 3139400
    mEndSample: 3139400
  - mStartSample: 3152000
    mEndSample: 3152000
  - mStartSample: 3170900
    mEndSample: 3170900
  - mStartSample: 3196100
    mEndSample: 3196100
  - mStartSample: 3233900
    mEndSample: 3233900
  - mStartSample: 3252800
    mEndSample: 3252800
  - mStartSample: 3347300
    mEndSample: 3347300
  - mStartSample: 3366200
    mEndSample: 3366200
  - mStartSample: 3385100
    mEndSample: 3385100
  - mStartSample: 3404000
    mEndSample: 3404000
  - mStartSample: 3422900
    mEndSample: 3422900
  - mStartSample: 3441800
    mEndSample: 3441800
  - mStartSample: 3460700
    mEndSample: 3460700
  - mStartSample: 3479600
    mEndSample: 3479600
  - mStartSample: 3498500
    mEndSample: 3498500
  - mStartSample: 3517400
    mEndSample: 3517400
  - mStartSample: 3536300
    mEndSample: 3536300
  - mStartSample: 3555200
    mEndSample: 3555200
  - mStartSample: 3574100
    mEndSample: 3574100
  - mStartSample: 3593000
    mEndSample: 3593000
  - mStartSample: 3611900
    mEndSample: 3611900
  - mStartSample: 3630800
    mEndSample: 3630800
  - mStartSample: 3649700
    mEndSample: 3649700
  - mStartSample: 3668600
    mEndSample: 3668600
  - mStartSample: 3687500
    mEndSample: 3687500
  - mStartSample: 3706400
    mEndSample: 3706400
  - mStartSample: 3725300
    mEndSample: 3725300
  - mStartSample: 3744200
    mEndSample: 3744200
  - mStartSample: 3763100
    mEndSample: 3763100
  - mStartSample: 3782000
    mEndSample: 3782000
  - mStartSample: 3800900
    mEndSample: 3800900
  - mStartSample: 3819800
    mEndSample: 3819800
  - mStartSample: 3838700
    mEndSample: 3838700
  - mStartSample: 3857600
    mEndSample: 3857600
  - mStartSample: 3876500
    mEndSample: 3876500
  - mStartSample: 3888155
    mEndSample: 3888155
  - mStartSample: 3952100
    mEndSample: 3952100
  - mStartSample: 3971000
    mEndSample: 3971000
  - mStartSample: 3989900
    mEndSample: 3989900
  - mStartSample: 4008800
    mEndSample: 4008800
  - mStartSample: 4027700
    mEndSample: 4027700
  - mStartSample: 4046600
    mEndSample: 4046600
  - mStartSample: 4065500
    mEndSample: 4065500
  - mStartSample: 4084400
    mEndSample: 4084400
  - mStartSample: 4103300
    mEndSample: 4103300
  - mStartSample: 4122200
    mEndSample: 4122200
  - mStartSample: 4141100
    mEndSample: 4141100
  - mStartSample: 4160000
    mEndSample: 4160000
  - mStartSample: 4178900
    mEndSample: 4178900
  - mStartSample: 4197800
    mEndSample: 4197800
  - mStartSample: 4216700
    mEndSample: 4216700
  - mStartSample: 4235600
    mEndSample: 4235600
  - mStartSample: 4254500
    mEndSample: 4254500
  - mStartSample: 4273400
    mEndSample: 4273400
  - mStartSample: 4292300
    mEndSample: 4292300
  - mStartSample: 4311200
    mEndSample: 4311200
  - mStartSample: 4330100
    mEndSample: 4330100
  - mStartSample: 4349000
    mEndSample: 4349000
  - mStartSample: 4367900
    mEndSample: 4367900
  - mStartSample: 4386800
    mEndSample: 4386800
  - mStartSample: 4405700
    mEndSample: 4405700
  - mStartSample: 4424600
    mEndSample: 4424600
  - mStartSample: 4443500
    mEndSample: 4443500
  - mStartSample: 4462400
    mEndSample: 4462400
  - mStartSample: 4481300
    mEndSample: 4481300
  - mStartSample: 4494585
    mEndSample: 4494585
  - mStartSample: 4566105
    mEndSample: 4566105
  _SerializedPayloadTypes: []
  _AssetPayloads: []
  _AssetPayloadIdxs: 
  _ColorPayloads: []
  _ColorPayloadIdxs: 
  _CurvePayloads: []
  _CurvePayloadIdxs: 
  _FloatPayloads: []
  _FloatPayloadIdxs: 
  _GradientPayloads: []
  _GradientPayloadIdxs: 
  _IntPayloads: []
  _IntPayloadIdxs: 
  _SpectrumPayloads: []
  _SpectrumPayloadIdxs: 
  _TextPayloads: []
  _TextPayloadIdxs: 
