%YAML 1.1
%TAG !u! tag:unity3d.com,2011:
--- !u!114 &11400000
MonoBehaviour:
  m_ObjectHideFlags: 0
  m_PrefabParentObject: {fileID: 0}
  m_PrefabInternal: {fileID: 0}
  m_GameObject: {fileID: 0}
  m_Enabled: 1
  m_EditorHideFlags: 0
  m_Script: {fileID: -1223223985, guid: aa81bbec85a3f423193272a7c6154986, type: 3}
  m_Name: K_04track
  m_EditorClassIdentifier: 
  mEventID: 04track
  mEventList:
  - mStartSample: 1400
    mEndSample: 1400
  - mStartSample: 20573
    mEndSample: 20573
  - mStartSample: 39747
    mEndSample: 39747
  - mStartSample: 58921
    mEndSample: 58921
  - mStartSample: 78095
    mEndSample: 78095
  - mStartSample: 97269
    mEndSample: 97269
  - mStartSample: 116443
    mEndSample: 116443
  - mStartSample: 135617
    mEndSample: 135617
  - mStartSample: 154791
    mEndSample: 154791
  - mStartSample: 173965
    mEndSample: 173965
  - mStartSample: 193139
    mEndSample: 193139
  - mStartSample: 212313
    mEndSample: 212313
  - mStartSample: 231486
    mEndSample: 231486
  - mStartSample: 250660
    mEndSample: 250660
  - mStartSample: 269834
    mEndSample: 269834
  - mStartSample: 289008
    mEndSample: 289008
  - mStartSample: 308182
    mEndSample: 308182
  - mStartSample: 327356
    mEndSample: 327356
  - mStartSample: 346530
    mEndSample: 346530
  - mStartSample: 365704
    mEndSample: 365704
  - mStartSample: 384878
    mEndSample: 384878
  - mStartSample: 404052
    mEndSample: 404052
  - mStartSample: 423226
    mEndSample: 423226
  - mStartSample: 442400
    mEndSample: 442400
  - mStartSample: 461573
    mEndSample: 461573
  - mStartSample: 480747
    mEndSample: 480747
  - mStartSample: 499921
    mEndSample: 499921
  - mStartSample: 519095
    mEndSample: 519095
  - mStartSample: 538269
    mEndSample: 538269
  - mStartSample: 557443
    mEndSample: 557443
  - mStartSample: 576617
    mEndSample: 576617
  - mStartSample: 614965
    mEndSample: 614965
  - mStartSample: 634139
    mEndSample: 634139
  - mStartSample: 653313
    mEndSample: 653313
  - mStartSample: 667693
    mEndSample: 667693
  - mStartSample: 672487
    mEndSample: 672487
  - mStartSample: 691660
    mEndSample: 691660
  - mStartSample: 710834
    mEndSample: 710834
  - mStartSample: 730008
    mEndSample: 730008
  - mStartSample: 744388
    mEndSample: 744388
  - mStartSample: 749182
    mEndSample: 749182
  - mStartSample: 768356
    mEndSample: 768356
  - mStartSample: 787530
    mEndSample: 787530
  - mStartSample: 806704
    mEndSample: 806704
  - mStartSample: 821084
    mEndSample: 821084
  - mStartSample: 825878
    mEndSample: 825878
  - mStartSample: 845052
    mEndSample: 845052
  - mStartSample: 864226
    mEndSample: 864226
  - mStartSample: 883400
    mEndSample: 883400
  - mStartSample: 902573
    mEndSample: 902573
  - mStartSample: 921747
    mEndSample: 921747
  - mStartSample: 940921
    mEndSample: 940921
  - mStartSample: 960095
    mEndSample: 960095
  - mStartSample: 974475
    mEndSample: 974475
  - mStartSample: 979269
    mEndSample: 979269
  - mStartSample: 998443
    mEndSample: 998443
  - mStartSample: 1017616
    mEndSample: 1017616
  - mStartSample: 1036790
    mEndSample: 1036790
  - mStartSample: 1051170
    mEndSample: 1051170
  - mStartSample: 1055964
    mEndSample: 1055964
  - mStartSample: 1075139
    mEndSample: 1075139
  - mStartSample: 1094312
    mEndSample: 1094312
  - mStartSample: 1113486
    mEndSample: 1113486
  - mStartSample: 1127866
    mEndSample: 1127866
  - mStartSample: 1132660
    mEndSample: 1132660
  - mStartSample: 1151834
    mEndSample: 1151834
  - mStartSample: 1171008
    mEndSample: 1171008
  - mStartSample: 1190182
    mEndSample: 1190182
  - mStartSample: 1228530
    mEndSample: 1228530
  - mStartSample: 1286052
    mEndSample: 1286052
  - mStartSample: 1305226
    mEndSample: 1305226
  - mStartSample: 1381921
    mEndSample: 1381921
  - mStartSample: 1401095
    mEndSample: 1401095
  - mStartSample: 1420269
    mEndSample: 1420269
  - mStartSample: 1439443
    mEndSample: 1439443
  - mStartSample: 1458617
    mEndSample: 1458617
  - mStartSample: 1535313
    mEndSample: 1535313
  - mStartSample: 1592834
    mEndSample: 1592834
  - mStartSample: 1612008
    mEndSample: 1612008
  - mStartSample: 1688704
    mEndSample: 1688704
  - mStartSample: 1707878
    mEndSample: 1707878
  - mStartSample: 1727052
    mEndSample: 1727052
  - mStartSample: 1741432
    mEndSample: 1741432
  - mStartSample: 1746226
    mEndSample: 1746226
  - mStartSample: 1765400
    mEndSample: 1765400
  - mStartSample: 1784573
    mEndSample: 1784573
  - mStartSample: 1803747
    mEndSample: 1803747
  - mStartSample: 1818127
    mEndSample: 1818127
  - mStartSample: 1822921
    mEndSample: 1822921
  - mStartSample: 1842095
    mEndSample: 1842095
  - mStartSample: 1861269
    mEndSample: 1861269
  - mStartSample: 1880443
    mEndSample: 1880443
  - mStartSample: 1894823
    mEndSample: 1894823
  - mStartSample: 1899617
    mEndSample: 1899617
  - mStartSample: 1918791
    mEndSample: 1918791
  - mStartSample: 1937965
    mEndSample: 1937965
  - mStartSample: 1957139
    mEndSample: 1957139
  - mStartSample: 1976312
    mEndSample: 1976312
  - mStartSample: 1995486
    mEndSample: 1995486
  - mStartSample: 2014660
    mEndSample: 2014660
  - mStartSample: 2033834
    mEndSample: 2033834
  - mStartSample: 2048214
    mEndSample: 2048214
  - mStartSample: 2053008
    mEndSample: 2053008
  - mStartSample: 2072182
    mEndSample: 2072182
  - mStartSample: 2091355
    mEndSample: 2091355
  - mStartSample: 2110529
    mEndSample: 2110529
  - mStartSample: 2124909
    mEndSample: 2124909
  - mStartSample: 2129703
    mEndSample: 2129703
  - mStartSample: 2148878
    mEndSample: 2148878
  - mStartSample: 2168051
    mEndSample: 2168051
  - mStartSample: 2187225
    mEndSample: 2187225
  - mStartSample: 2201605
    mEndSample: 2201605
  - mStartSample: 2206399
    mEndSample: 2206399
  - mStartSample: 2225573
    mEndSample: 2225573
  - mStartSample: 2244747
    mEndSample: 2244747
  - mStartSample: 2263921
    mEndSample: 2263921
  - mStartSample: 2302269
    mEndSample: 2302269
  - mStartSample: 2321443
    mEndSample: 2321443
  - mStartSample: 2340617
    mEndSample: 2340617
  - mStartSample: 2354997
    mEndSample: 2354997
  - mStartSample: 2359791
    mEndSample: 2359791
  - mStartSample: 2378965
    mEndSample: 2378965
  - mStartSample: 2398138
    mEndSample: 2398138
  - mStartSample: 2417312
    mEndSample: 2417312
  - mStartSample: 2431692
    mEndSample: 2431692
  - mStartSample: 2436486
    mEndSample: 2436486
  - mStartSample: 2455660
    mEndSample: 2455660
  - mStartSample: 2474834
    mEndSample: 2474834
  - mStartSample: 2494008
    mEndSample: 2494008
  - mStartSample: 2508388
    mEndSample: 2508388
  - mStartSample: 2513182
    mEndSample: 2513182
  - mStartSample: 2532356
    mEndSample: 2532356
  - mStartSample: 2551530
    mEndSample: 2551530
  - mStartSample: 2570704
    mEndSample: 2570704
  - mStartSample: 2589877
    mEndSample: 2589877
  - mStartSample: 2609052
    mEndSample: 2609052
  - mStartSample: 2628226
    mEndSample: 2628226
  - mStartSample: 2647400
    mEndSample: 2647400
  - mStartSample: 2661780
    mEndSample: 2661780
  - mStartSample: 2666574
    mEndSample: 2666574
  - mStartSample: 2685747
    mEndSample: 2685747
  - mStartSample: 2704921
    mEndSample: 2704921
  - mStartSample: 2724095
    mEndSample: 2724095
  - mStartSample: 2738475
    mEndSample: 2738475
  - mStartSample: 2743269
    mEndSample: 2743269
  - mStartSample: 2762443
    mEndSample: 2762443
  - mStartSample: 2781617
    mEndSample: 2781617
  - mStartSample: 2800791
    mEndSample: 2800791
  - mStartSample: 2815171
    mEndSample: 2815171
  - mStartSample: 2819965
    mEndSample: 2819965
  - mStartSample: 2839139
    mEndSample: 2839139
  - mStartSample: 2858313
    mEndSample: 2858313
  - mStartSample: 2877486
    mEndSample: 2877486
  - mStartSample: 2877487
    mEndSample: 2877487
  - mStartSample: 2935008
    mEndSample: 2935008
  - mStartSample: 2954182
    mEndSample: 2954182
  - mStartSample: 2973356
    mEndSample: 2973356
  - mStartSample: 2992530
    mEndSample: 2992530
  - mStartSample: 3011704
    mEndSample: 3011704
  - mStartSample: 3030878
    mEndSample: 3030878
  - mStartSample: 3050052
    mEndSample: 3050052
  - mStartSample: 3069226
    mEndSample: 3069226
  - mStartSample: 3088400
    mEndSample: 3088400
  - mStartSample: 3107573
    mEndSample: 3107573
  - mStartSample: 3126747
    mEndSample: 3126747
  - mStartSample: 3145921
    mEndSample: 3145921
  - mStartSample: 3165095
    mEndSample: 3165095
  - mStartSample: 3184269
    mEndSample: 3184269
  - mStartSample: 3203443
    mEndSample: 3203443
  - mStartSample: 3222617
    mEndSample: 3222617
  - mStartSample: 3241791
    mEndSample: 3241791
  - mStartSample: 3260965
    mEndSample: 3260965
  - mStartSample: 3280139
    mEndSample: 3280139
  - mStartSample: 3299313
    mEndSample: 3299313
  - mStartSample: 3318486
    mEndSample: 3318486
  - mStartSample: 3337660
    mEndSample: 3337660
  - mStartSample: 3356834
    mEndSample: 3356834
  - mStartSample: 3376008
    mEndSample: 3376008
  - mStartSample: 3395182
    mEndSample: 3395182
  - mStartSample: 3414356
    mEndSample: 3414356
  - mStartSample: 3433530
    mEndSample: 3433530
  - mStartSample: 3452704
    mEndSample: 3452704
  - mStartSample: 3471878
    mEndSample: 3471878
  - mStartSample: 3491052
    mEndSample: 3491052
  - mStartSample: 3548573
    mEndSample: 3548573
  - mStartSample: 3567747
    mEndSample: 3567747
  - mStartSample: 3586921
    mEndSample: 3586921
  - mStartSample: 3606095
    mEndSample: 3606095
  - mStartSample: 3625269
    mEndSample: 3625269
  - mStartSample: 3644443
    mEndSample: 3644443
  - mStartSample: 3663617
    mEndSample: 3663617
  - mStartSample: 3682791
    mEndSample: 3682791
  - mStartSample: 3701965
    mEndSample: 3701965
  - mStartSample: 3721139
    mEndSample: 3721139
  - mStartSample: 3740313
    mEndSample: 3740313
  - mStartSample: 3759486
    mEndSample: 3759486
  - mStartSample: 3778660
    mEndSample: 3778660
  - mStartSample: 3797834
    mEndSample: 3797834
  - mStartSample: 3817008
    mEndSample: 3817008
  - mStartSample: 3836182
    mEndSample: 3836182
  - mStartSample: 3855356
    mEndSample: 3855356
  - mStartSample: 3874530
    mEndSample: 3874530
  - mStartSample: 3893704
    mEndSample: 3893704
  - mStartSample: 3912878
    mEndSample: 3912878
  - mStartSample: 3932052
    mEndSample: 3932052
  - mStartSample: 3951226
    mEndSample: 3951226
  - mStartSample: 3970400
    mEndSample: 3970400
  - mStartSample: 3989573
    mEndSample: 3989573
  - mStartSample: 4008747
    mEndSample: 4008747
  - mStartSample: 4027921
    mEndSample: 4027921
  - mStartSample: 4047095
    mEndSample: 4047095
  - mStartSample: 4066269
    mEndSample: 4066269
  - mStartSample: 4085443
    mEndSample: 4085443
  - mStartSample: 4104617
    mEndSample: 4104617
  - mStartSample: 4123791
    mEndSample: 4123791
  - mStartSample: 4142965
    mEndSample: 4142965
  - mStartSample: 4162139
    mEndSample: 4162139
  - mStartSample: 4181313
    mEndSample: 4181313
  - mStartSample: 4200486
    mEndSample: 4200486
  - mStartSample: 4219660
    mEndSample: 4219660
  - mStartSample: 4238834
    mEndSample: 4238834
  - mStartSample: 4258008
    mEndSample: 4258008
  - mStartSample: 4277182
    mEndSample: 4277182
  - mStartSample: 4296356
    mEndSample: 4296356
  - mStartSample: 4315530
    mEndSample: 4315530
  - mStartSample: 4334704
    mEndSample: 4334704
  - mStartSample: 4353878
    mEndSample: 4353878
  - mStartSample: 4373052
    mEndSample: 4373052
  - mStartSample: 4392226
    mEndSample: 4392226
  - mStartSample: 4411400
    mEndSample: 4411400
  - mStartSample: 4430573
    mEndSample: 4430573
  - mStartSample: 4449747
    mEndSample: 4449747
  _SerializedPayloadTypes: []
  _AssetPayloads: []
  _AssetPayloadIdxs: 
  _ColorPayloads: []
  _ColorPayloadIdxs: 
  _CurvePayloads: []
  _CurvePayloadIdxs: 
  _FloatPayloads: []
  _FloatPayloadIdxs: 
  _GradientPayloads: []
  _GradientPayloadIdxs: 
  _IntPayloads: []
  _IntPayloadIdxs: 
  _SpectrumPayloads: []
  _SpectrumPayloadIdxs: 
  _TextPayloads: []
  _TextPayloadIdxs: 
