%YAML 1.1
%TAG !u! tag:unity3d.com,2011:
--- !u!114 &11400000
MonoBehaviour:
  m_ObjectHideFlags: 0
  m_PrefabParentObject: {fileID: 0}
  m_PrefabInternal: {fileID: 0}
  m_GameObject: {fileID: 0}
  m_Enabled: 1
  m_EditorHideFlags: 0
  m_Script: {fileID: -1223223985, guid: aa81bbec85a3f423193272a7c6154986, type: 3}
  m_Name: K_05track
  m_EditorClassIdentifier: 
  mEventID: 05track
  mEventList:
  - mStartSample: 91241
    mEndSample: 91241
  - mStartSample: 109489
    mEndSample: 109489
  - mStartSample: 127737
    mEndSample: 127737
  - mStartSample: 145986
    mEndSample: 145986
  - mStartSample: 164234
    mEndSample: 164234
  - mStartSample: 173358
    mEndSample: 173358
  - mStartSample: 191606
    mEndSample: 191606
  - mStartSample: 237227
    mEndSample: 237227
  - mStartSample: 255475
    mEndSample: 255475
  - mStartSample: 273723
    mEndSample: 273723
  - mStartSample: 291972
    mEndSample: 291972
  - mStartSample: 310220
    mEndSample: 310220
  - mStartSample: 319344
    mEndSample: 319344
  - mStartSample: 337592
    mEndSample: 337592
  - mStartSample: 383213
    mEndSample: 383213
  - mStartSample: 401461
    mEndSample: 401461
  - mStartSample: 419709
    mEndSample: 419709
  - mStartSample: 437958
    mEndSample: 437958
  - mStartSample: 456206
    mEndSample: 456206
  - mStartSample: 465330
    mEndSample: 465330
  - mStartSample: 483578
    mEndSample: 483578
  - mStartSample: 510951
    mEndSample: 510951
  - mStartSample: 529200
    mEndSample: 529200
  - mStartSample: 538324
    mEndSample: 538324
  - mStartSample: 556572
    mEndSample: 556572
  - mStartSample: 565696
    mEndSample: 565696
  - mStartSample: 583944
    mEndSample: 583944
  - mStartSample: 638689
    mEndSample: 638689
  - mStartSample: 656937
    mEndSample: 656937
  - mStartSample: 711682
    mEndSample: 711682
  - mStartSample: 729931
    mEndSample: 729931
  - mStartSample: 784675
    mEndSample: 784675
  - mStartSample: 802924
    mEndSample: 802924
  - mStartSample: 821172
    mEndSample: 821172
  - mStartSample: 839420
    mEndSample: 839420
  - mStartSample: 875917
    mEndSample: 875917
  - mStartSample: 903289
    mEndSample: 903289
  - mStartSample: 930662
    mEndSample: 930662
  - mStartSample: 948910
    mEndSample: 948910
  - mStartSample: 976282
    mEndSample: 976282
  - mStartSample: 1021903
    mEndSample: 1021903
  - mStartSample: 1049275
    mEndSample: 1049275
  - mStartSample: 1094896
    mEndSample: 1094896
  - mStartSample: 1122268
    mEndSample: 1122268
  - mStartSample: 1149641
    mEndSample: 1149641
  - mStartSample: 1167889
    mEndSample: 1167889
  - mStartSample: 1222634
    mEndSample: 1222634
  - mStartSample: 1240882
    mEndSample: 1240882
  - mStartSample: 1295627
    mEndSample: 1295627
  - mStartSample: 1313875
    mEndSample: 1313875
  - mStartSample: 1368620
    mEndSample: 1368620
  - mStartSample: 1386868
    mEndSample: 1386868
  - mStartSample: 1414241
    mEndSample: 1414241
  - mStartSample: 1441613
    mEndSample: 1441613
  - mStartSample: 1459862
    mEndSample: 1459862
  - mStartSample: 1487234
    mEndSample: 1487234
  - mStartSample: 1514606
    mEndSample: 1514606
  - mStartSample: 1532855
    mEndSample: 1532855
  - mStartSample: 1560227
    mEndSample: 1560227
  - mStartSample: 1605848
    mEndSample: 1605848
  - mStartSample: 1633220
    mEndSample: 1633220
  - mStartSample: 1678841
    mEndSample: 1678841
  - mStartSample: 1697089
    mEndSample: 1697089
  - mStartSample: 1715337
    mEndSample: 1715337
  - mStartSample: 1733586
    mEndSample: 1733586
  - mStartSample: 1751834
    mEndSample: 1751834
  - mStartSample: 1824827
    mEndSample: 1824827
  - mStartSample: 1843075
    mEndSample: 1843075
  - mStartSample: 1861324
    mEndSample: 1861324
  - mStartSample: 1879572
    mEndSample: 1879572
  - mStartSample: 1897820
    mEndSample: 1897820
  - mStartSample: 1916068
    mEndSample: 1916068
  - mStartSample: 1934317
    mEndSample: 1934317
  - mStartSample: 1952565
    mEndSample: 1952565
  - mStartSample: 1970813
    mEndSample: 1970813
  - mStartSample: 1989062
    mEndSample: 1989062
  - mStartSample: 2007310
    mEndSample: 2007310
  - mStartSample: 2025558
    mEndSample: 2025558
  - mStartSample: 2043806
    mEndSample: 2043806
  - mStartSample: 2062055
    mEndSample: 2062055
  - mStartSample: 2080303
    mEndSample: 2080303
  - mStartSample: 2098551
    mEndSample: 2098551
  - mStartSample: 2116800
    mEndSample: 2116800
  - mStartSample: 2135048
    mEndSample: 2135048
  - mStartSample: 2153296
    mEndSample: 2153296
  - mStartSample: 2171544
    mEndSample: 2171544
  - mStartSample: 2189793
    mEndSample: 2189793
  - mStartSample: 2208041
    mEndSample: 2208041
  - mStartSample: 2226289
    mEndSample: 2226289
  - mStartSample: 2244537
    mEndSample: 2244537
  - mStartSample: 2262786
    mEndSample: 2262786
  - mStartSample: 2281034
    mEndSample: 2281034
  - mStartSample: 2299282
    mEndSample: 2299282
  - mStartSample: 2317531
    mEndSample: 2317531
  - mStartSample: 2335779
    mEndSample: 2335779
  - mStartSample: 2408772
    mEndSample: 2408772
  - mStartSample: 2427020
    mEndSample: 2427020
  - mStartSample: 2445268
    mEndSample: 2445268
  - mStartSample: 2463517
    mEndSample: 2463517
  - mStartSample: 2481765
    mEndSample: 2481765
  - mStartSample: 2500013
    mEndSample: 2500013
  - mStartSample: 2518262
    mEndSample: 2518262
  - mStartSample: 2536510
    mEndSample: 2536510
  - mStartSample: 2554758
    mEndSample: 2554758
  - mStartSample: 2573006
    mEndSample: 2573006
  - mStartSample: 2591255
    mEndSample: 2591255
  - mStartSample: 2609503
    mEndSample: 2609503
  - mStartSample: 2627751
    mEndSample: 2627751
  - mStartSample: 2646000
    mEndSample: 2646000
  - mStartSample: 2664248
    mEndSample: 2664248
  - mStartSample: 2682496
    mEndSample: 2682496
  - mStartSample: 2700744
    mEndSample: 2700744
  - mStartSample: 2718993
    mEndSample: 2718993
  - mStartSample: 2737241
    mEndSample: 2737241
  - mStartSample: 2755489
    mEndSample: 2755489
  - mStartSample: 2773737
    mEndSample: 2773737
  - mStartSample: 2791986
    mEndSample: 2791986
  - mStartSample: 2810234
    mEndSample: 2810234
  - mStartSample: 2828482
    mEndSample: 2828482
  - mStartSample: 2846731
    mEndSample: 2846731
  - mStartSample: 2864979
    mEndSample: 2864979
  - mStartSample: 2883227
    mEndSample: 2883227
  - mStartSample: 2901475
    mEndSample: 2901475
  - mStartSample: 2919724
    mEndSample: 2919724
  - mStartSample: 2992717
    mEndSample: 2992717
  - mStartSample: 3047462
    mEndSample: 3047462
  - mStartSample: 3065710
    mEndSample: 3065710
  - mStartSample: 3120455
    mEndSample: 3120455
  - mStartSample: 3138703
    mEndSample: 3138703
  - mStartSample: 3229944
    mEndSample: 3229944
  - mStartSample: 3248193
    mEndSample: 3248193
  - mStartSample: 3266441
    mEndSample: 3266441
  - mStartSample: 3284689
    mEndSample: 3284689
  - mStartSample: 3339434
    mEndSample: 3339434
  - mStartSample: 3357682
    mEndSample: 3357682
  - mStartSample: 3412427
    mEndSample: 3412427
  - mStartSample: 3430675
    mEndSample: 3430675
  - mStartSample: 3521917
    mEndSample: 3521917
  - mStartSample: 3540165
    mEndSample: 3540165
  - mStartSample: 3558413
    mEndSample: 3558413
  - mStartSample: 3576662
    mEndSample: 3576662
  - mStartSample: 3631406
    mEndSample: 3631406
  - mStartSample: 3649655
    mEndSample: 3649655
  - mStartSample: 3704400
    mEndSample: 3704400
  - mStartSample: 3722648
    mEndSample: 3722648
  - mStartSample: 3813889
    mEndSample: 3813889
  - mStartSample: 3832137
    mEndSample: 3832137
  - mStartSample: 3850386
    mEndSample: 3850386
  - mStartSample: 3868634
    mEndSample: 3868634
  - mStartSample: 3923379
    mEndSample: 3923379
  - mStartSample: 3941627
    mEndSample: 3941627
  - mStartSample: 3996372
    mEndSample: 3996372
  - mStartSample: 4014620
    mEndSample: 4014620
  - mStartSample: 4105862
    mEndSample: 4105862
  - mStartSample: 4124110
    mEndSample: 4124110
  - mStartSample: 4142358
    mEndSample: 4142358
  - mStartSample: 4160606
    mEndSample: 4160606
  _SerializedPayloadTypes: []
  _AssetPayloads: []
  _AssetPayloadIdxs: 
  _ColorPayloads: []
  _ColorPayloadIdxs: 
  _CurvePayloads: []
  _CurvePayloadIdxs: 
  _FloatPayloads: []
  _FloatPayloadIdxs: 
  _GradientPayloads: []
  _GradientPayloadIdxs: 
  _IntPayloads: []
  _IntPayloadIdxs: 
  _SpectrumPayloads: []
  _SpectrumPayloadIdxs: 
  _TextPayloads: []
  _TextPayloadIdxs: 
