%YAML 1.1
%TAG !u! tag:unity3d.com,2011:
--- !u!114 &11400000
MonoBehaviour:
  m_ObjectHideFlags: 0
  m_PrefabParentObject: {fileID: 0}
  m_PrefabInternal: {fileID: 0}
  m_GameObject: {fileID: 0}
  m_Enabled: 1
  m_EditorHideFlags: 0
  m_Script: {fileID: -1223223985, guid: aa81bbec85a3f423193272a7c6154986, type: 3}
  m_Name: K_09track
  m_EditorClassIdentifier: 
  mEventID: 09track
  mEventList:
  - mStartSample: 0
    mEndSample: 0
  - mStartSample: 500
    mEndSample: 500
  - mStartSample: 25228
    mEndSample: 25228
  - mStartSample: 49957
    mEndSample: 49957
  - mStartSample: 74686
    mEndSample: 74686
  - mStartSample: 99415
    mEndSample: 99415
  - mStartSample: 124144
    mEndSample: 124144
  - mStartSample: 148873
    mEndSample: 148873
  - mStartSample: 173602
    mEndSample: 173602
  - mStartSample: 198331
    mEndSample: 198331
  - mStartSample: 223060
    mEndSample: 223060
  - mStartSample: 247789
    mEndSample: 247789
  - mStartSample: 272518
    mEndSample: 272518
  - mStartSample: 297247
    mEndSample: 297247
  - mStartSample: 321976
    mEndSample: 321976
  - mStartSample: 346705
    mEndSample: 346705
  - mStartSample: 396163
    mEndSample: 396163
  - mStartSample: 470350
    mEndSample: 470350
  - mStartSample: 495079
    mEndSample: 495079
  - mStartSample: 643453
    mEndSample: 643453
  - mStartSample: 692911
    mEndSample: 692911
  - mStartSample: 742369
    mEndSample: 742369
  - mStartSample: 791827
    mEndSample: 791827
  - mStartSample: 866014
    mEndSample: 866014
  - mStartSample: 890742
    mEndSample: 890742
  - mStartSample: 989658
    mEndSample: 989658
  - mStartSample: 1063845
    mEndSample: 1063845
  - mStartSample: 1100939
    mEndSample: 1100939
  - mStartSample: 1125668
    mEndSample: 1125668
  - mStartSample: 1150397
    mEndSample: 1150397
  - mStartSample: 1187490
    mEndSample: 1187490
  - mStartSample: 1212219
    mEndSample: 1212219
  - mStartSample: 1286406
    mEndSample: 1286406
  - mStartSample: 1385322
    mEndSample: 1385322
  - mStartSample: 1410051
    mEndSample: 1410051
  - mStartSample: 1484238
    mEndSample: 1484238
  - mStartSample: 1583154
    mEndSample: 1583154
  - mStartSample: 1607883
    mEndSample: 1607883
  - mStartSample: 1682070
    mEndSample: 1682070
  - mStartSample: 1780985
    mEndSample: 1780985
  - mStartSample: 1805714
    mEndSample: 1805714
  - mStartSample: 1879901
    mEndSample: 1879901
  - mStartSample: 1978817
    mEndSample: 1978817
  - mStartSample: 2003546
    mEndSample: 2003546
  - mStartSample: 2053004
    mEndSample: 2053004
  - mStartSample: 2077733
    mEndSample: 2077733
  - mStartSample: 2102462
    mEndSample: 2102462
  - mStartSample: 2127191
    mEndSample: 2127191
  - mStartSample: 2151920
    mEndSample: 2151920
  - mStartSample: 2176649
    mEndSample: 2176649
  - mStartSample: 2201378
    mEndSample: 2201378
  - mStartSample: 2250836
    mEndSample: 2250836
  - mStartSample: 2275565
    mEndSample: 2275565
  - mStartSample: 2300294
    mEndSample: 2300294
  - mStartSample: 2325023
    mEndSample: 2325023
  - mStartSample: 2374481
    mEndSample: 2374481
  - mStartSample: 2399210
    mEndSample: 2399210
  - mStartSample: 2448668
    mEndSample: 2448668
  - mStartSample: 2473397
    mEndSample: 2473397
  - mStartSample: 2498126
    mEndSample: 2498126
  - mStartSample: 2522855
    mEndSample: 2522855
  - mStartSample: 2547584
    mEndSample: 2547584
  - mStartSample: 2572313
    mEndSample: 2572313
  - mStartSample: 2597042
    mEndSample: 2597042
  - mStartSample: 2646500
    mEndSample: 2646500
  - mStartSample: 2671228
    mEndSample: 2671228
  - mStartSample: 2671228
    mEndSample: 2671228
  - mStartSample: 2695957
    mEndSample: 2695957
  - mStartSample: 2720686
    mEndSample: 2720686
  - mStartSample: 2770144
    mEndSample: 2770144
  - mStartSample: 2794873
    mEndSample: 2794873
  - mStartSample: 2844331
    mEndSample: 2844331
  - mStartSample: 2869060
    mEndSample: 2869060
  - mStartSample: 2967976
    mEndSample: 2967976
  - mStartSample: 2992705
    mEndSample: 2992705
  - mStartSample: 3042163
    mEndSample: 3042163
  - mStartSample: 3066892
    mEndSample: 3066892
  - mStartSample: 3165808
    mEndSample: 3165808
  - mStartSample: 3190537
    mEndSample: 3190537
  - mStartSample: 3239995
    mEndSample: 3239995
  - mStartSample: 3264724
    mEndSample: 3264724
  - mStartSample: 3363640
    mEndSample: 3363640
  - mStartSample: 3388369
    mEndSample: 3388369
  - mStartSample: 3437827
    mEndSample: 3437827
  - mStartSample: 3462556
    mEndSample: 3462556
  - mStartSample: 3561471
    mEndSample: 3561471
  - mStartSample: 3586200
    mEndSample: 3586200
  - mStartSample: 3635658
    mEndSample: 3635658
  - mStartSample: 3660387
    mEndSample: 3660387
  - mStartSample: 3685116
    mEndSample: 3685116
  - mStartSample: 3709845
    mEndSample: 3709845
  - mStartSample: 3759303
    mEndSample: 3759303
  - mStartSample: 3784032
    mEndSample: 3784032
  - mStartSample: 3833490
    mEndSample: 3833490
  - mStartSample: 3858219
    mEndSample: 3858219
  - mStartSample: 3882948
    mEndSample: 3882948
  - mStartSample: 3907677
    mEndSample: 3907677
  - mStartSample: 3957135
    mEndSample: 3957135
  - mStartSample: 3957135
    mEndSample: 3957135
  - mStartSample: 3981864
    mEndSample: 3981864
  - mStartSample: 4031322
    mEndSample: 4031322
  - mStartSample: 4056051
    mEndSample: 4056051
  - mStartSample: 4080780
    mEndSample: 4080780
  - mStartSample: 4105509
    mEndSample: 4105509
  - mStartSample: 4154967
    mEndSample: 4154967
  - mStartSample: 4179696
    mEndSample: 4179696
  - mStartSample: 4229154
    mEndSample: 4229154
  - mStartSample: 4253883
    mEndSample: 4253883
  - mStartSample: 4278612
    mEndSample: 4278612
  _SerializedPayloadTypes: []
  _AssetPayloads: []
  _AssetPayloadIdxs: 
  _ColorPayloads: []
  _ColorPayloadIdxs: 
  _CurvePayloads: []
  _CurvePayloadIdxs: 
  _FloatPayloads: []
  _FloatPayloadIdxs: 
  _GradientPayloads: []
  _GradientPayloadIdxs: 
  _IntPayloads: []
  _IntPayloadIdxs: 
  _SpectrumPayloads: []
  _SpectrumPayloadIdxs: 
  _TextPayloads: []
  _TextPayloadIdxs: 
